{
	"template": {
		"path": "./template/template.png",
		"path-nobeat": "./template/template-nobeat.png",
		"width": 1200,
		"height": 628,
		"text": {
			"path": "./template/text/",
			"top": 155,
			"left": 0
		},
		"cards": {
			"path": "./template/cards/",
			"suit-icon": {
				"top": 112,
				"left": 55
			},
			"card-icon": {
				"top": 40,
				"left": 40
			},
			"card-1": {
				"top": 300,
				"left": 370
			},
			"card-2": {
				"top": 300,
				"left": 615
			}
		}
	},
	"storage": {
		"path": "./images/"
	},
	"bad-beats": ["Bad Beat", "Coin Flip", "That's Poker", "Unlucky", "Painful", "Sick", "RIP", ""]
}